[gd_resource type="ShaderMaterial" load_steps=6 format=2]

[sub_resource type="VisualShaderNodeInput" id=1]
output_port_for_preview = 0
input_name = "color"

[sub_resource type="VisualShaderNodeVectorDecompose" id=2]

[sub_resource type="VisualShaderNodeFloatOp" id=3]
default_input_values = [ 0, 0.0, 1, 0.9 ]
operator = 1

[sub_resource type="VisualShaderNodeTexture" id=4]

[sub_resource type="VisualShader" id=5]
resource_local_to_scene = true
code = "shader_type spatial;



void vertex() {
// Output:0

}

void fragment() {
// Input:2
	vec3 n_out2p0;
	n_out2p0 = COLOR.rgb;

// ScalarOp:4
	float n_in4p1 = 0.90000;
	float n_out4p0;
	n_out4p0 = dot(n_out2p0,vec3(0.333333,0.333333,0.333333)) - n_in4p1;

// Output:0
	ALBEDO = vec3(n_out4p0);

}

void light() {
// Output:0

}
"
nodes/fragment/0/position = Vector2( 2040, 180 )
nodes/fragment/2/node = SubResource( 1 )
nodes/fragment/2/position = Vector2( 660, 260 )
nodes/fragment/3/node = SubResource( 2 )
nodes/fragment/3/position = Vector2( 1260, 200 )
nodes/fragment/4/node = SubResource( 3 )
nodes/fragment/4/position = Vector2( 1120, 520 )
nodes/fragment/5/node = SubResource( 4 )
nodes/fragment/5/position = Vector2( 280, 300 )
nodes/fragment/connections = PackedInt32Array( 2, 0, 3, 0, 2, 0, 4, 0, 4, 0, 0, 0 )

[resource]
resource_local_to_scene = true
shader = SubResource( 5 )
